30
-1	-1	-1	1	3	-1	2	0	4	2	
0	-1	-1	1	7	0	0	-1	0	1	
-1	1	-1	-1	-1	-1	-1	0	0	1	
0	-1	-1	0	6	-1	-1	-1	0	1	
1	-1	-1	-1	0	1	0	-1	0	1	
0	-1	-1	-1	1	-1	2	1	0	2	
-1	1	-1	-1	2	-1	-1	1	2	3	
-1	-1	1	-1	3	1	0	1	6	4	
0	0	0	-1	5	1	0	1	4	3	
-1	-1	1	0	2	1	-1	0	0	4	
-1	-1	-1	-1	7	-1	-1	-1	2	3	
0	0	-1	1	0	1	2	-1	2	2	
0	-1	-1	-1	5	0	5	1	2	3	
-1	-1	-1	-1	1	1	-1	1	2	3	
1	-1	-1	0	4	0	5	-1	0	1	
-1	0	-1	1	0	-1	-1	1	0	1	
-1	0	1	0	-1	-1	0	-1	4	3	
-1	1	0	-1	7	-1	6	-1	0	1	
-1	0	1	1	-1	1	-1	0	0	4	
-1	1	-1	-1	-1	1	-1	-1	6	1	
